[gd_scene load_steps=3 format=2]

[ext_resource path="res://lich/phylactery.escn" type="PackedScene" id=1]
[ext_resource path="res://lich/phylactery.gd" type="Script" id=2]

[node name="Phylactery" index="0" instance=ExtResource( 1 )]
script = ExtResource( 2 )
